<svg width="27" height="26" viewBox="0 0 27 26" fill="none" xmlns="http://www.w3.org/2000/svg">
<path d="M23.25 6.95272C22.5326 7.27122 21.7615 7.48572 20.9523 7.58241C21.7786 7.0876 22.4123 6.30353 22.7113 5.36916C21.9386 5.82741 21.0822 6.16053 20.1706 6.3401C19.441 5.56253 18.401 5.07666 17.2505 5.07666C15.0413 5.07666 13.2498 6.86822 13.2498 9.07741C13.2498 9.39104 13.2855 9.69653 13.3529 9.98903C10.0282 9.82247 7.08044 8.22916 5.10688 5.80872C4.76319 6.39941 4.56575 7.08679 4.56575 7.82047C4.56575 9.20822 5.27181 10.4327 6.34512 11.1501C5.68944 11.129 5.07275 10.9494 4.53325 10.6496C4.53325 10.6667 4.53325 10.6829 4.53325 10.7C4.53325 12.6386 5.91206 14.2555 7.74262 14.6227C7.40706 14.7145 7.05363 14.7633 6.688 14.7633C6.43044 14.7633 6.17938 14.7381 5.93563 14.6918C6.44506 16.281 7.92219 17.438 9.67312 17.4705C8.30406 18.5438 6.57913 19.1833 4.70469 19.1833C4.38213 19.1833 4.06363 19.1646 3.75 19.1272C5.52044 20.2623 7.62319 20.9245 9.88275 20.9245C17.2416 20.9245 21.2651 14.8283 21.2651 9.54135C21.2651 9.36829 21.261 9.19522 21.2537 9.02379C22.0353 8.4591 22.7138 7.75466 23.25 6.95272Z" fill="#ACACAC"/>
</svg>
